{
    "monthNum": 2,
    "monthName": "Февраль",
    "days": {
        "6": {
            "hours": {
                "8:00": "Панихида. Утреня. Часы. Литургия.",
                "17:00": "Всенощное бдение."
            },
            "col2": "Прп. Ксении. Блж. Ксении Петербуржской",
            "weekday": "СБ"
        },
        "7": {
            "hours": {
                "9:30": "Исповедь. Часы. Литургия. Лития."
            },
            "col2": "Неделя 35-я по Пятидесятнице. Собор новомучеников и исповедников Церкви Русской",
            "weekday": "ВС"
        },
        "10": {
            "hours": {
                "8:00": "Утреня. Часы. Литургия."
            },
            "col2": "Мц. Ольги Евдокимовой (1938)",
            "weekday": "СР"
        },
        "14": {
            "hours": {
                "9:30": "Исповедь. Часы. Литургия.",
                "22:00": "Всенощное бдение."
            },
            "col2": "Неделя 36-я по Пятидесятнице. Предпразднство Сретения Господня. Мч. Трифона и иных",
            "weekday": "ВС"
        },
        "15": {
            "hours": {
                "0:00": "Часы. Литургия."
            },
            "col2": "СРЕТЕНИЕ ГОСПОДА БОГА И СПАСА НАШЕГО ИИСУСА ХРИСТА",
            "weekday": "ПН",
            "hday": 1
        },
        "17": {
            "hours": {
                "8:00": "Утреня. Часы. Литургия."
            },
            "col2": "Мч. Димитрия Ильинского (1938)",
            "weekday": "СР"
        },
        "20": {
            "hours": {
                "8:00": "Панихида. Утреня. Часы. Литургия.",
                "17:00": "Всенощное бдение."
            },
            "col2": "Прп. Парфения Лампсакийского",
            "weekday": "СБ"
        },
        "21": {
            "hours": {
                "9:30": "Исповедь. Часы. Литургия."
            },
            "col2": "Неделя о мытаре и фарисее. Вмч. Феодора Стратилата",
            "weekday": "ВС"
        },
        "27": {
            "hours": {
                "8:00": "Панихида. Утреня. Часы. Литургия.",
                "17:00": "Всенощное бдение."
            },
            "col2": "Равноап. Кирилла, учителя Словенского",
            "weekday": "СБ"
        },
        "28": {
            "hours": {
                "9:30": "Исповедь. Часы. Литургия."
            },
            "col2": "Неделя о блудном сыне",
            "weekday": "ВС"
        }
    }
}